<svg width="60" height="93" viewBox="0 0 60 93" fill="none" xmlns="http://www.w3.org/2000/svg">
<path fill-rule="evenodd" clip-rule="evenodd" d="M30 58C46.5685 58 60 45.0163 60 29C60 12.9837 46.5685 0 30 0C13.4315 0 0 12.9837 0 29C0 45.0163 13.4315 58 30 58ZM52.5167 62.25L30 93L7.48334 62.25H52.5167Z" fill="#A5E076"/>
</svg>
